,class,weight,V1_mean,V2_mean,V3_mean,V4_mean,V5_mean,V7_mean,V9_mean,V10_mean,V11_mean,V12_mean,V14_mean,V16_mean,V17_mean,V18_mean,V1_var,V2_var,V3_var,V4_var,V5_var,V7_var,V9_var,V10_var,V11_var,V12_var,V14_var,V16_var,V17_var,V18_var
0,1,0.2012095208567807,-0.08870472749061514,0.34339335163978346,-0.9619422850151558,2.148424612235051,1.0070964050963305,0.2925618244236083,-0.2708121164522212,-0.5127748936285264,0.5934755580232702,-0.7049264150758793,-1.9386264058999023,0.5681802529902531,1.7259175209660482,0.8293886664402573,3.246177598983315,3.544635373022403,2.8695053292697965,3.046990852104086,3.927408091301456,3.633807182901782,1.2567092643447226,1.8628282861252865,1.4766305900949261,1.4623624625080243,5.871933443929024,1.1766230999308562,4.289083473092107,1.1046752168618676
1,1,0.05735423939609433,-24.74088065362103,15.274193626891474,-26.369410285360583,7.5744231712881325,-17.722993757372144,-23.281073230855238,-6.178680262865165,-13.238648203082485,4.649249157468243,-8.270047495258307,-5.505230639076183,-6.476666069102283,-12.855472076755236,-5.201038601377047,11.954085977550337,6.5918658365683624,9.757407589805895,3.913929256549376,4.8835273141798465,69.83050267235706,11.149734063012362,43.92445462859217,0.5589592458972942,4.229581914857266,6.9401841834968385,0.8326700843568088,1.9795880017955223,0.43428504059963907
2,1,0.3199516399695898,-2.001512673466237,1.469193129879911,-3.54066423178376,2.7027160047581793,-1.2340030534031483,-2.413287822704382,-1.3662485903445705,-3.8235769376209157,2.8649647447905737,-4.439067077127092,-5.4255582728188765,-3.1751863234522393,-4.926826418956167,-1.4330720440487894,4.264864213604308,3.9948695905639964,3.2354620216009087,2.1161300614991916,2.917222625848548,3.2938864351519506,1.205464243980308,2.1280743883882396,1.5060728838065642,2.72115441602175,3.101964569472403,1.5714507831311717,4.087524566093797,1.264552122562394
3,1,0.06698261998016729,-5.547410321993716,6.084773678004307,-11.132066148860114,8.043178051590447,-6.450262365048602,-10.60113207971447,-5.502173051934612,-12.27112732332389,8.780116312302255,-15.762735711975553,-14.881161408036267,-11.860458469803268,-19.61601695800148,-7.223026717855444,5.799645123171401,1.749426596514385,5.631590175072932,2.39101959350194,5.671943268505063,1.9575543464303446,1.5625932109157101,0.6961762911417705,2.993478875609912,3.2735563391704003,5.280703578254392,1.2545696239067492,10.046766004974645,1.8325522555440752
4,1,0.10853551408446185,-1.157035348492812,3.682297262436382,-6.425836929982806,6.315083608246986,0.8127799786272426,-2.1021440911264215,-3.097592197021845,-4.488814968542469,4.67746623675576,-6.655258770231453,-10.618903718055947,-1.729217732217005,-1.873112218549031,0.2746536143497241,4.30212097802227,1.463205710831519,1.2009167458351395,0.9769212059036246,1.7646835904676863,1.2995996417041755,1.0823480072650316,2.725845473420473,1.503845337938318,3.7498507118655438,3.030422037841549,1.7719109361864753,5.603728838885485,0.9438505649407661
5,1,0.09314281542171762,-14.48457082670382,8.26649652497867,-18.289106133899633,9.043890848630369,-11.030792279556213,-16.49375674882606,-6.250878853011416,-14.014441931981095,7.169067229387843,-13.407907399507506,-11.066910998686689,-9.824248740575877,-16.85460092769944,-6.698266541804439,6.749935936246831,3.8143135990004025,9.83717550889253,4.162434484397639,6.495742706870206,9.609672590063157,2.669850131349061,3.5579690144188616,3.3801121109770405,4.178466515255766,7.945490395186542,2.2304860725282962,10.725845714086008,2.185601271308914
6,1,0.15282365029118838,-5.551662580783601,4.131393998863868,-6.856955678254176,4.868647473442484,-3.7381198088864416,-6.8423299054727424,-2.9324831415828214,-6.3901280400065215,4.802412171973627,-7.825585506128726,-8.83291045719033,-6.345315931088804,-10.550258601748107,-3.7852170042996174,10.862332385324576,9.736521660341323,7.409100103861721,1.581968071824664,3.4075411223960996,15.81673978756841,2.1640077085517477,2.1174299438314774,2.128021733339959,3.246944739123502,3.7073585225735313,1.2397646871490646,5.824348635431067,0.8909740877058682
7,0,0.06570140029475412,0.044570968474311426,0.8799661104689821,-0.9547274597314845,0.013465805316590602,1.0388461218897067,0.6328038903438692,-0.16950084546798025,-0.9239284868878246,0.20573406433297903,-0.013537802457474227,-1.2820926562685049,0.36007183414897964,0.8979465612940777,0.6030351062223162,1.0654056057395749,0.33611295514177547,1.262966726543773,0.7050377939231474,0.7581034372991596,0.3028619164354447,0.24847810792553127,0.2165402708949292,0.9294453235540181,0.28570357629879145,0.6950838825615292,0.23943719122399712,0.6452920212678911,0.43080226391634396
8,0,0.13650596954525393,1.3066506907292148,-0.1881668627315539,0.2032283310939836,0.678619237514423,-0.42357134945012415,-0.23456054557032965,0.4734564046303383,-0.07311714173084764,0.11725235713509342,0.5431930332905516,0.1173845463579934,0.17291818358921177,-0.35328341194588303,-0.14708940334922135,0.1276433378892968,0.16786640382404644,0.3720498859216109,0.2570277937025364,0.1782201202686851,0.15603046043111007,0.31582648818920966,0.027949223601466778,0.9246412206698675,0.29951834250967235,0.14057369209899687,0.19126731804097738,0.16392808863124983,0.2922933008581856
9,0,0.3341935307919643,-0.6143925164619065,-0.11511767710700274,0.37857152575630043,-0.11107110610772065,0.03385582566512946,-0.047054647125757916,-0.2128064051078295,0.0409383363519777,-0.22322647504547183,0.10832947582325719,-0.04966756932766731,-0.14786862476675985,-0.01010367804403675,-0.007370945721513917,2.028538827450887,1.7581928962778337,1.8942300292963568,3.5200544779538223,1.6094596821202114,0.8703269330620963,1.3889149085522574,0.9039820100022078,0.9246146323158851,0.5595669817301969,0.531155393535585,1.0193781189134419,0.46416304128784125,0.8560056256316293
10,0,0.11131877012975679,1.64615427534293,-1.1166119618132608,-0.3682184933802189,-0.9258386835885315,-0.9066883618885863,-0.8247869205993542,-0.8061124954679978,0.9725233514350691,0.012705027982837253,-0.274453493591287,-0.1980865109763915,0.01626888955102028,0.1652335608846351,-0.06381401248609751,0.2071685854392998,0.22576227848951955,0.9610153331389348,0.38619205758503,0.5564998949854671,0.29583095877623017,0.5117358617927708,0.18861789598823517,0.8675187768839405,0.3972788794054879,0.25936475360146827,1.2691450231020505,0.2446271702743554,1.2735919537612712
11,0,0.16709139045068425,-0.6496126439554137,0.8427525161184888,0.8677949768532596,-0.14791483022781393,0.3528921607780628,0.6107384452450532,-0.2815369277289555,-0.3500955425304712,-0.1013003249626331,0.2318821682310936,0.1567227718529857,0.003703886924340158,-0.33175164285174585,-0.07145877818819862,0.19610116023036303,0.14583699872802933,0.7290686841816496,0.630771537394776,0.41669912044534785,0.23197634701572953,0.1969567614428739,0.17714954137349423,0.8964713266422274,0.2655907315870719,0.21362533971063855,0.256940594933131,0.1965152702296373,0.24775921481629704
12,0,0.04547660262673979,-4.7625435734537485,-0.5995026855431451,-1.8930338146456696,0.3897621402739868,-0.4439065128112186,-0.18493121483036604,0.78362548674091,1.0494443335753085,0.12726009520324114,0.09925072366057806,-0.08643176273181917,0.18998768508440408,0.44125146200207876,0.14290861521509465,15.717334889759387,35.435799381700576,7.934065081720154,5.056701129706845,17.040480027476004,16.794682414389715,4.602559302371515,9.549986292662252,1.7795286714643863,2.325118486306328,4.229849013500252,1.6781425302959923,2.607142803751759,1.1192913490888463
13,0,0.07560635520315837,2.016651429411749,-0.05719177932807193,-1.6980166272821058,0.3712821210946427,0.46819952970049994,0.21662675024613637,0.4197966012229312,-0.029059103985447247,-0.09658730417456417,0.44759651874461603,0.10233230695219646,-0.0536842061586393,-0.1496150740547977,-0.1574264886421808,0.0068523122223841096,0.041827639777051735,0.26055536746877933,0.21135548372614044,0.36206587052670547,0.11625075553245183,0.11064293020795338,0.09784004905850972,0.7139089417711789,0.28423672191967536,0.5453334459329127,0.19093392280244229,0.2964054104716887,0.3321751440799975
14,0,0.06410598095760078,0.33848940365680874,0.23620585247341064,0.4851024455291951,0.27643677151464524,0.16316390913523163,-0.037414051574122774,1.4272278663394389,-0.44400793156817875,0.8662130632823978,-2.2646770146010735,1.387264243156669,0.03600560515966993,0.5058042066543135,0.17558614179494977,1.71505110358323,0.6628767676937208,1.6155004877071377,1.8371040148576727,0.9374916105855452,0.5550092493003331,0.7886857870440521,0.5005005504833699,0.8756914094381267,0.412813111714838,0.3207692871373194,0.5355726351422692,0.3503251019510926,0.5317784330208174
